<svg width="88" height="30" viewBox="0 0 88 47" fill="none" xmlns="http://www.w3.org/2000/svg">
                                                <path d="M25.16 11.76L20.36 34.2C21.08 34.7333 21.84 35 22.64 35C23.84 35 24.9067 34.4533 25.84 33.36C26.8 32.2667 27.6 30.88 28.24 29.2C28.9067 27.52 29.4133 25.68 29.76 23.68C30.1333 21.6533 30.32 19.7333 30.32 17.92C30.32 16.4267 30.1867 15.1733 29.92 14.16C29.68 13.12 29.3067 12.28 28.8 11.64C28.2933 11 27.6533 10.5467 26.88 10.28C26.1067 9.98666 25.2 9.84 24.16 9.84C22.8 9.84 21.4933 10.0667 20.24 10.52C19.0133 10.9467 17.9333 11.5867 17 12.44C16.0933 13.2667 15.36 14.28 14.8 15.48C14.2667 16.68 14 18.04 14 19.56C14 20.04 14.0267 20.44 14.08 20.76C14.1333 21.0533 14.1867 21.3067 14.24 21.52C14.2933 21.7067 14.3467 21.8667 14.4 22C14.48 22.1067 14.5333 22.2 14.56 22.28C13.2267 22.28 12.1733 22 11.4 21.44C10.6533 20.88 10.28 19.92 10.28 18.56C10.28 17.2 10.68 15.88 11.48 14.6C12.28 13.32 13.3467 12.2 14.68 11.24C16.04 10.2533 17.6 9.46667 19.36 8.88C21.1467 8.29333 23.0267 8 25 8C26.9733 8 28.64 8.30666 30 8.92C31.3867 9.50666 32.5067 10.3333 33.36 11.4C34.24 12.4667 34.8667 13.72 35.24 15.16C35.64 16.5733 35.84 18.1067 35.84 19.76C35.84 21.2267 35.7067 22.7067 35.44 24.2C35.1733 25.6933 34.7867 27.1333 34.28 28.52C33.8 29.9067 33.2133 31.2133 32.52 32.44C31.8267 33.6667 31.0667 34.7333 30.24 35.64C29.44 36.52 28.5733 37.2267 27.64 37.76C26.7067 38.2667 25.7467 38.52 24.76 38.52C23.9867 38.52 23.1867 38.3467 22.36 38C21.56 37.68 20.7333 37.1467 19.88 36.4L19.56 38H13.8L19.24 12.56L25.16 11.76ZM40.5203 12.68C40.5203 11.8 40.827 11.0533 41.4403 10.44C42.0536 9.8 42.8003 9.48 43.6803 9.48C44.5603 9.48 45.307 9.8 45.9203 10.44C46.5603 11.0533 46.8803 11.8 46.8803 12.68C46.8803 13.56 46.5603 14.3067 45.9203 14.92C45.307 15.5333 44.5603 15.84 43.6803 15.84C42.8003 15.84 42.0536 15.5333 41.4403 14.92C40.827 14.3067 40.5203 13.56 40.5203 12.68ZM45.4803 18L42.6003 31.6C42.4936 32.0533 42.4403 32.48 42.4403 32.88C42.4403 33.44 42.5736 33.8267 42.8403 34.04C43.107 34.2533 43.5203 34.36 44.0803 34.36C44.8536 34.36 45.5736 34.0267 46.2403 33.36C46.907 32.6933 47.387 31.8533 47.6803 30.84H49.3603C48.8003 32.4667 48.147 33.7733 47.4003 34.76C46.6536 35.72 45.8936 36.4667 45.1203 37C44.347 37.5067 43.587 37.84 42.8403 38C42.1203 38.16 41.4936 38.24 40.9603 38.24C39.7603 38.24 38.747 37.8667 37.9203 37.12C37.0936 36.3467 36.6803 35.12 36.6803 33.44C36.6803 32.72 36.787 31.8533 37.0003 30.84L39.7203 18H45.4803ZM59.1844 23.52C59.1844 22.16 58.7044 21.48 57.7444 21.48C57.0244 21.48 56.3977 21.84 55.8644 22.56C55.331 23.28 54.9177 24.1467 54.6244 25.16L51.9044 38H46.1444L50.3844 18H56.1444L55.7044 20.08C56.5577 19.12 57.3977 18.5067 58.2244 18.24C59.051 17.9733 59.771 17.84 60.3844 17.84C61.6644 17.84 62.7177 18.2 63.5444 18.92C64.3977 19.6133 64.8244 20.76 64.8244 22.36C64.8244 23.16 64.7177 24.0533 64.5044 25.04C64.3177 26 64.1044 26.96 63.8644 27.92C63.6244 28.8533 63.3977 29.7467 63.1844 30.6C62.9977 31.4267 62.9044 32.12 62.9044 32.68C62.9044 33.1867 63.011 33.6 63.2244 33.92C63.4644 34.2133 63.891 34.36 64.5044 34.36C64.931 34.36 65.3044 34.28 65.6244 34.12C65.971 33.9333 66.2644 33.6933 66.5044 33.4C66.771 33.08 67.011 32.7067 67.2244 32.28C67.4377 31.8533 67.651 31.3733 67.8644 30.84H69.5444C68.9844 32.4933 68.3844 33.8133 67.7444 34.8C67.1044 35.76 66.451 36.4933 65.7844 37C65.1177 37.5067 64.4644 37.84 63.8244 38C63.211 38.16 62.6377 38.24 62.1044 38.24C61.2244 38.24 60.4777 38.12 59.8644 37.88C59.2777 37.6133 58.7977 37.2667 58.4244 36.84C58.051 36.4133 57.7844 35.9333 57.6244 35.4C57.4644 34.84 57.3844 34.28 57.3844 33.72C57.3844 33.0533 57.4777 32.2667 57.6644 31.36C57.851 30.4267 58.051 29.4933 58.2644 28.56C58.5044 27.6267 58.7177 26.72 58.9044 25.84C59.091 24.9333 59.1844 24.16 59.1844 23.52ZM78.2597 17.8C81.353 17.8 83.0464 19.5467 83.3397 23.04C83.6597 22.96 83.9664 22.8 84.2597 22.56C84.553 22.32 84.8064 22.0667 85.0197 21.8C85.2597 21.5067 85.4597 21.2267 85.6197 20.96C85.8064 20.6933 85.953 20.4667 86.0597 20.28H87.3397C86.9397 21.1333 86.4197 22.08 85.7797 23.12C85.1664 24.16 84.3397 24.9867 83.2997 25.6C83.193 27.5467 82.8597 29.3067 82.2997 30.88C81.7664 32.4267 81.073 33.7467 80.2197 34.84C79.3664 35.9333 78.3797 36.7733 77.2597 37.36C76.1397 37.9467 74.953 38.24 73.6997 38.24C72.7664 38.24 71.8997 38.1333 71.0997 37.92C70.3264 37.68 69.6597 37.3067 69.0997 36.8C68.5397 36.2933 68.0997 35.64 67.7797 34.84C67.4597 34.04 67.2997 33.0667 67.2997 31.92C67.2997 31.1467 67.3797 30.2667 67.5397 29.28C67.6997 28.2933 67.953 27.28 68.2997 26.24C68.673 25.1733 69.1397 24.1467 69.6997 23.16C70.2597 22.1467 70.9397 21.24 71.7397 20.44C72.5664 19.64 73.513 19 74.5797 18.52C75.6464 18.04 76.873 17.8 78.2597 17.8ZM75.2997 34.48C75.7797 34.48 76.2597 34.28 76.7397 33.88C77.2464 33.4533 77.6997 32.88 78.0997 32.16C78.5264 31.4133 78.8997 30.5467 79.2197 29.56C79.5397 28.5467 79.7797 27.4533 79.9397 26.28C79.2197 26.0933 78.8597 25.48 78.8597 24.44C78.8597 23.88 78.9664 23.4267 79.1797 23.08C79.4197 22.7067 79.7264 22.4533 80.0997 22.32C80.0464 21.5467 79.8997 21 79.6597 20.68C79.4464 20.36 79.0864 20.2 78.5797 20.2C77.8597 20.2 77.1797 20.6 76.5397 21.4C75.8997 22.1733 75.3397 23.1333 74.8597 24.28C74.3797 25.4 73.993 26.6 73.6997 27.88C73.4064 29.1333 73.2597 30.2533 73.2597 31.24C73.2597 31.9067 73.2864 32.4533 73.3397 32.88C73.4197 33.28 73.5397 33.6 73.6997 33.84C73.8597 34.08 74.073 34.2533 74.3397 34.36C74.6064 34.44 74.9264 34.48 75.2997 34.48Z" fill="white"></path>
                                                <path d="M44 12.5001C81.5 1.99997 40.3333 2 23.5 2C11.6259 2 2 11.6259 2 23.5C2 35.3741 11.6259 45 23.5 45H84" stroke="white" stroke-width="4"></path>
                                            </svg>